{
    "faces":[41,0,1,2,3,0,1,2,3,0,0,0,0,41,4,7,10,8,0,3,3,0,1,1,1,1,41,0,4,5,1,0,1,2,3,2,2,2,2,41,1,5,6,2,0,1,2,3,3,3,3,3,41,2,6,7,3,0,1,2,3,4,4,4,4,41,4,0,3,7,0,1,2,3,5,5,5,5,41,8,10,11,9,4,5,6,7,6,6,6,6,41,6,5,9,11,2,1,1,2,7,7,7,7,41,5,4,8,9,2,1,1,2,8,8,8,8,41,7,6,11,10,2,1,1,2,9,9,9,9],
    "vertices":[0.327516,-0.6377,-0.438672,0.327516,-0.6377,1.56133,-1.53777,-0.6377,1.56133,-1.53777,-0.6377,-0.438673,0.327517,2.52625,-0.438672,0.327516,2.52625,1.56133,-1.53777,2.52625,1.56133,-1.53777,2.52625,-0.438673,0.692043,3.03694,-0.675889,0.692042,3.03694,1.79855,-1.9023,3.03694,-0.67589,-1.9023,3.03694,1.79854],
    "metadata":{
        "generator":"io_three",
        "uvs":1,
        "faces":10,
        "type":"Geometry",
        "normals":10,
        "vertices":12,
        "version":3
    },
    "normals":[0,-1,0,2.0472e-07,-0.421276,-0.906932,1,3.76773e-08,2.38419e-07,-3.19546e-07,-7.53547e-08,1,-1,1.31871e-07,3.8743e-07,2.55637e-07,9.41933e-08,-1,0,1,0,-4.59879e-07,-0.421276,0.906932,0.813921,-0.580975,4.14004e-07,-0.813921,-0.580975,3.2908e-07],
    "uvs":[[0,0,1,0,1,1,0,1,0.0456282,0.0033451,0.939086,0.00334504,0.939086,1.00298,0.0456284,1.00298]]
}